[
  {
    "id": "vo8t18oetjpsKiyeXR1Fp",
    "date": "2018-04-12T16:31:08.750Z",
    "author": "re",
    "message": "fe",
    "image": "kDcwd0GiXLHL3E1kFej6x.png"
  },
  {
    "id": "mLWKS2CvpNRcSm58Lhe_w",
    "date": "2018-04-12T17:04:57.092Z",
    "author": "Anonymous",
    "message": "dafew",
    "image": "vYS~KeXiETrtLtNllyxf0.png"
  },
  {
    "id": "UzcDivyfDqIxvavB_qg6T",
    "date": "2018-04-12T17:05:12.152Z",
    "author": "adafmq;lfm;l",
    "message": "dafewCWECWECEWC",
    "image": "3LgUfQXgpXG5iJTIGl0X6.png"
  },
  {
    "id": "VnQaJsEGJgJGObxMNwHxI",
    "date": "2018-04-12T17:06:58.183Z",
    "author": "Anonymous",
    "message": "Bonwqdfqf"
  },
  {
    "id": "s6sTAOYensRMRDbXMRSf5",
    "date": "2018-04-12T17:12:32.753Z",
    "author": "Max",
    "message": "flkwnfklenfKNF;LAMFL;WEC WELFWEFKWELFKWEFEW\r\nG\r\nG\r\nEG\r\nERG\r\nERQG\r\nSRGERQ;NMGFWKEQNGF",
    "image": "gMUJNOd4Y_JHUQTr8~puk.png"
  }
]